{
  "ApimUrl": {
    "type": "String",
    "value": "@appsetting('APIM_Gateway_Url')"
  },
  "Ocp_Apim_Subscription_Key": {
    "type": "String",
    "value": "@appsetting('APIM_SubscriptionKey')"
  },
  "ValidEditionStatusList": {
    "type": "String",
    "value": "@appsetting('ValidEditionStatusList')"
  },
  "InterfaceId": {
    "type": "String",
    "value": "@appsetting('InterfaceId')"
  }
}
