{
  "dependencies": {
    "appInsights1": {
      "type": "appInsights",
      "connectionId": "APPLICATIONINSIGHTS_CONNECTION_STRING"
    },
    "storage1": {
      "type": "storage",
      "connectionId": "AzureWebJobsStorage"
    }
  }
}
